(['C:\\Users\\123iv\\OneDrive\\Рабочий стол\\steel_com_1\\main_wind.py'],
 ['C:\\Users\\123iv\\OneDrive\\Рабочий стол\\steel_com_1',
  'C:\\Users\\123iv\\OneDrive\\Рабочий стол\\steel_com_1'],
 ['codecs'],
 [],
 [],
 [],
 False,
 False,
 '3.7.3 (default, Apr 24 2019, 15:29:51) [MSC v.1915 64 bit (AMD64)]',
 [('pyi_rth_pyqt5',
   'C:\\Users\\123iv\\AppData\\Roaming\\Python\\Python37\\site-packages\\PyInstaller\\loader\\rthooks\\pyi_rth_pyqt5.py',
   'PYSOURCE'),
  ('main_wind',
   'C:\\Users\\123iv\\OneDrive\\Рабочий стол\\steel_com_1\\main_wind.py',
   'PYSOURCE')],
 [('os', 'C:\\Users\\123iv\\Anaconda3\\lib\\os.py', 'PYMODULE'),
  ('ntpath', 'C:\\Users\\123iv\\Anaconda3\\lib\\ntpath.py', 'PYMODULE'),
  ('string', 'C:\\Users\\123iv\\Anaconda3\\lib\\string.py', 'PYMODULE'),
  ('genericpath',
   'C:\\Users\\123iv\\Anaconda3\\lib\\genericpath.py',
   'PYMODULE'),
  ('posixpath', 'C:\\Users\\123iv\\Anaconda3\\lib\\posixpath.py', 'PYMODULE'),
  ('stat', 'C:\\Users\\123iv\\Anaconda3\\lib\\stat.py', 'PYMODULE'),
  ('stringprep', 'C:\\Users\\123iv\\Anaconda3\\lib\\stringprep.py', 'PYMODULE'),
  ('bz2', 'C:\\Users\\123iv\\Anaconda3\\lib\\bz2.py', 'PYMODULE'),
  ('threading', 'C:\\Users\\123iv\\Anaconda3\\lib\\threading.py', 'PYMODULE'),
  ('_threading_local',
   'C:\\Users\\123iv\\Anaconda3\\lib\\_threading_local.py',
   'PYMODULE'),
  ('contextlib', 'C:\\Users\\123iv\\Anaconda3\\lib\\contextlib.py', 'PYMODULE'),
  ('_compression',
   'C:\\Users\\123iv\\Anaconda3\\lib\\_compression.py',
   'PYMODULE'),
  ('quopri', 'C:\\Users\\123iv\\Anaconda3\\lib\\quopri.py', 'PYMODULE'),
  ('getopt', 'C:\\Users\\123iv\\Anaconda3\\lib\\getopt.py', 'PYMODULE'),
  ('gettext', 'C:\\Users\\123iv\\Anaconda3\\lib\\gettext.py', 'PYMODULE'),
  ('base64', 'C:\\Users\\123iv\\Anaconda3\\lib\\base64.py', 'PYMODULE'),
  ('tracemalloc',
   'C:\\Users\\123iv\\Anaconda3\\lib\\tracemalloc.py',
   'PYMODULE'),
  ('fnmatch', 'C:\\Users\\123iv\\Anaconda3\\lib\\fnmatch.py', 'PYMODULE'),
  ('typing', 'C:\\Users\\123iv\\Anaconda3\\lib\\typing.py', 'PYMODULE'),
  ('tokenize', 'C:\\Users\\123iv\\Anaconda3\\lib\\tokenize.py', 'PYMODULE'),
  ('argparse', 'C:\\Users\\123iv\\Anaconda3\\lib\\argparse.py', 'PYMODULE'),
  ('textwrap', 'C:\\Users\\123iv\\Anaconda3\\lib\\textwrap.py', 'PYMODULE'),
  ('token', 'C:\\Users\\123iv\\Anaconda3\\lib\\token.py', 'PYMODULE'),
  ('_py_abc', 'C:\\Users\\123iv\\Anaconda3\\lib\\_py_abc.py', 'PYMODULE'),
  ('doctest', 'C:\\Users\\123iv\\Anaconda3\\lib\\doctest.py', 'PYMODULE'),
  ('unittest',
   'C:\\Users\\123iv\\Anaconda3\\lib\\unittest\\__init__.py',
   'PYMODULE'),
  ('unittest.signals',
   'C:\\Users\\123iv\\Anaconda3\\lib\\unittest\\signals.py',
   'PYMODULE'),
  ('signal', 'C:\\Users\\123iv\\Anaconda3\\lib\\signal.py', 'PYMODULE'),
  ('unittest.main',
   'C:\\Users\\123iv\\Anaconda3\\lib\\unittest\\main.py',
   'PYMODULE'),
  ('unittest.runner',
   'C:\\Users\\123iv\\Anaconda3\\lib\\unittest\\runner.py',
   'PYMODULE'),
  ('unittest.loader',
   'C:\\Users\\123iv\\Anaconda3\\lib\\unittest\\loader.py',
   'PYMODULE'),
  ('unittest.suite',
   'C:\\Users\\123iv\\Anaconda3\\lib\\unittest\\suite.py',
   'PYMODULE'),
  ('unittest.case',
   'C:\\Users\\123iv\\Anaconda3\\lib\\unittest\\case.py',
   'PYMODULE'),
  ('pprint', 'C:\\Users\\123iv\\Anaconda3\\lib\\pprint.py', 'PYMODULE'),
  ('logging',
   'C:\\Users\\123iv\\Anaconda3\\lib\\logging\\__init__.py',
   'PYMODULE'),
  ('unittest.result',
   'C:\\Users\\123iv\\Anaconda3\\lib\\unittest\\result.py',
   'PYMODULE'),
  ('unittest.util',
   'C:\\Users\\123iv\\Anaconda3\\lib\\unittest\\util.py',
   'PYMODULE'),
  ('pdb', 'C:\\Users\\123iv\\Anaconda3\\lib\\pdb.py', 'PYMODULE'),
  ('pydoc', 'C:\\Users\\123iv\\Anaconda3\\lib\\pydoc.py', 'PYMODULE'),
  ('webbrowser', 'C:\\Users\\123iv\\Anaconda3\\lib\\webbrowser.py', 'PYMODULE'),
  ('shutil', 'C:\\Users\\123iv\\Anaconda3\\lib\\shutil.py', 'PYMODULE'),
  ('zipfile', 'C:\\Users\\123iv\\Anaconda3\\lib\\zipfile.py', 'PYMODULE'),
  ('py_compile', 'C:\\Users\\123iv\\Anaconda3\\lib\\py_compile.py', 'PYMODULE'),
  ('tarfile', 'C:\\Users\\123iv\\Anaconda3\\lib\\tarfile.py', 'PYMODULE'),
  ('gzip', 'C:\\Users\\123iv\\Anaconda3\\lib\\gzip.py', 'PYMODULE'),
  ('lzma', 'C:\\Users\\123iv\\Anaconda3\\lib\\lzma.py', 'PYMODULE'),
  ('email.message',
   'C:\\Users\\123iv\\Anaconda3\\lib\\email\\message.py',
   'PYMODULE'),
  ('email.policy',
   'C:\\Users\\123iv\\Anaconda3\\lib\\email\\policy.py',
   'PYMODULE'),
  ('email.contentmanager',
   'C:\\Users\\123iv\\Anaconda3\\lib\\email\\contentmanager.py',
   'PYMODULE'),
  ('email.quoprimime',
   'C:\\Users\\123iv\\Anaconda3\\lib\\email\\quoprimime.py',
   'PYMODULE'),
  ('email.headerregistry',
   'C:\\Users\\123iv\\Anaconda3\\lib\\email\\headerregistry.py',
   'PYMODULE'),
  ('email._header_value_parser',
   'C:\\Users\\123iv\\Anaconda3\\lib\\email\\_header_value_parser.py',
   'PYMODULE'),
  ('urllib',
   'C:\\Users\\123iv\\Anaconda3\\lib\\urllib\\__init__.py',
   'PYMODULE'),
  ('email.iterators',
   'C:\\Users\\123iv\\Anaconda3\\lib\\email\\iterators.py',
   'PYMODULE'),
  ('email.generator',
   'C:\\Users\\123iv\\Anaconda3\\lib\\email\\generator.py',
   'PYMODULE'),
  ('random', 'C:\\Users\\123iv\\Anaconda3\\lib\\random.py', 'PYMODULE'),
  ('bisect', 'C:\\Users\\123iv\\Anaconda3\\lib\\bisect.py', 'PYMODULE'),
  ('hashlib', 'C:\\Users\\123iv\\Anaconda3\\lib\\hashlib.py', 'PYMODULE'),
  ('email._encoded_words',
   'C:\\Users\\123iv\\Anaconda3\\lib\\email\\_encoded_words.py',
   'PYMODULE'),
  ('email.charset',
   'C:\\Users\\123iv\\Anaconda3\\lib\\email\\charset.py',
   'PYMODULE'),
  ('email.encoders',
   'C:\\Users\\123iv\\Anaconda3\\lib\\email\\encoders.py',
   'PYMODULE'),
  ('email.base64mime',
   'C:\\Users\\123iv\\Anaconda3\\lib\\email\\base64mime.py',
   'PYMODULE'),
  ('email._policybase',
   'C:\\Users\\123iv\\Anaconda3\\lib\\email\\_policybase.py',
   'PYMODULE'),
  ('email.header',
   'C:\\Users\\123iv\\Anaconda3\\lib\\email\\header.py',
   'PYMODULE'),
  ('email.errors',
   'C:\\Users\\123iv\\Anaconda3\\lib\\email\\errors.py',
   'PYMODULE'),
  ('email.utils',
   'C:\\Users\\123iv\\Anaconda3\\lib\\email\\utils.py',
   'PYMODULE'),
  ('email._parseaddr',
   'C:\\Users\\123iv\\Anaconda3\\lib\\email\\_parseaddr.py',
   'PYMODULE'),
  ('calendar', 'C:\\Users\\123iv\\Anaconda3\\lib\\calendar.py', 'PYMODULE'),
  ('datetime', 'C:\\Users\\123iv\\Anaconda3\\lib\\datetime.py', 'PYMODULE'),
  ('_strptime', 'C:\\Users\\123iv\\Anaconda3\\lib\\_strptime.py', 'PYMODULE'),
  ('email', 'C:\\Users\\123iv\\Anaconda3\\lib\\email\\__init__.py', 'PYMODULE'),
  ('email.parser',
   'C:\\Users\\123iv\\Anaconda3\\lib\\email\\parser.py',
   'PYMODULE'),
  ('email.feedparser',
   'C:\\Users\\123iv\\Anaconda3\\lib\\email\\feedparser.py',
   'PYMODULE'),
  ('uu', 'C:\\Users\\123iv\\Anaconda3\\lib\\uu.py', 'PYMODULE'),
  ('optparse', 'C:\\Users\\123iv\\Anaconda3\\lib\\optparse.py', 'PYMODULE'),
  ('http.server',
   'C:\\Users\\123iv\\Anaconda3\\lib\\http\\server.py',
   'PYMODULE'),
  ('http', 'C:\\Users\\123iv\\Anaconda3\\lib\\http\\__init__.py', 'PYMODULE'),
  ('socketserver',
   'C:\\Users\\123iv\\Anaconda3\\lib\\socketserver.py',
   'PYMODULE'),
  ('selectors', 'C:\\Users\\123iv\\Anaconda3\\lib\\selectors.py', 'PYMODULE'),
  ('mimetypes', 'C:\\Users\\123iv\\Anaconda3\\lib\\mimetypes.py', 'PYMODULE'),
  ('http.client',
   'C:\\Users\\123iv\\Anaconda3\\lib\\http\\client.py',
   'PYMODULE'),
  ('ssl', 'C:\\Users\\123iv\\Anaconda3\\lib\\ssl.py', 'PYMODULE'),
  ('html', 'C:\\Users\\123iv\\Anaconda3\\lib\\html\\__init__.py', 'PYMODULE'),
  ('html.entities',
   'C:\\Users\\123iv\\Anaconda3\\lib\\html\\entities.py',
   'PYMODULE'),
  ('pydoc_data.topics',
   'C:\\Users\\123iv\\Anaconda3\\lib\\pydoc_data\\topics.py',
   'PYMODULE'),
  ('pydoc_data',
   'C:\\Users\\123iv\\Anaconda3\\lib\\pydoc_data\\__init__.py',
   'PYMODULE'),
  ('tty', 'C:\\Users\\123iv\\Anaconda3\\lib\\tty.py', 'PYMODULE'),
  ('tempfile', 'C:\\Users\\123iv\\Anaconda3\\lib\\tempfile.py', 'PYMODULE'),
  ('urllib.parse',
   'C:\\Users\\123iv\\Anaconda3\\lib\\urllib\\parse.py',
   'PYMODULE'),
  ('platform', 'C:\\Users\\123iv\\Anaconda3\\lib\\platform.py', 'PYMODULE'),
  ('plistlib', 'C:\\Users\\123iv\\Anaconda3\\lib\\plistlib.py', 'PYMODULE'),
  ('xml.parsers.expat',
   'C:\\Users\\123iv\\Anaconda3\\lib\\xml\\parsers\\expat.py',
   'PYMODULE'),
  ('xml.parsers',
   'C:\\Users\\123iv\\Anaconda3\\lib\\xml\\parsers\\__init__.py',
   'PYMODULE'),
  ('xml', 'C:\\Users\\123iv\\Anaconda3\\lib\\xml\\__init__.py', 'PYMODULE'),
  ('xml.sax.expatreader',
   'C:\\Users\\123iv\\Anaconda3\\lib\\xml\\sax\\expatreader.py',
   'PYMODULE'),
  ('xml.sax.saxutils',
   'C:\\Users\\123iv\\Anaconda3\\lib\\xml\\sax\\saxutils.py',
   'PYMODULE'),
  ('urllib.request',
   'C:\\Users\\123iv\\Anaconda3\\lib\\urllib\\request.py',
   'PYMODULE'),
  ('getpass', 'C:\\Users\\123iv\\Anaconda3\\lib\\getpass.py', 'PYMODULE'),
  ('nturl2path', 'C:\\Users\\123iv\\Anaconda3\\lib\\nturl2path.py', 'PYMODULE'),
  ('ftplib', 'C:\\Users\\123iv\\Anaconda3\\lib\\ftplib.py', 'PYMODULE'),
  ('netrc', 'C:\\Users\\123iv\\Anaconda3\\lib\\netrc.py', 'PYMODULE'),
  ('http.cookiejar',
   'C:\\Users\\123iv\\Anaconda3\\lib\\http\\cookiejar.py',
   'PYMODULE'),
  ('urllib.response',
   'C:\\Users\\123iv\\Anaconda3\\lib\\urllib\\response.py',
   'PYMODULE'),
  ('urllib.error',
   'C:\\Users\\123iv\\Anaconda3\\lib\\urllib\\error.py',
   'PYMODULE'),
  ('xml.sax',
   'C:\\Users\\123iv\\Anaconda3\\lib\\xml\\sax\\__init__.py',
   'PYMODULE'),
  ('xml.sax.handler',
   'C:\\Users\\123iv\\Anaconda3\\lib\\xml\\sax\\handler.py',
   'PYMODULE'),
  ('xml.sax._exceptions',
   'C:\\Users\\123iv\\Anaconda3\\lib\\xml\\sax\\_exceptions.py',
   'PYMODULE'),
  ('xml.sax.xmlreader',
   'C:\\Users\\123iv\\Anaconda3\\lib\\xml\\sax\\xmlreader.py',
   'PYMODULE'),
  ('pkgutil', 'C:\\Users\\123iv\\Anaconda3\\lib\\pkgutil.py', 'PYMODULE'),
  ('importlib',
   'C:\\Users\\123iv\\Anaconda3\\lib\\importlib\\__init__.py',
   'PYMODULE'),
  ('importlib.abc',
   'C:\\Users\\123iv\\Anaconda3\\lib\\importlib\\abc.py',
   'PYMODULE'),
  ('importlib.util',
   'C:\\Users\\123iv\\Anaconda3\\lib\\importlib\\util.py',
   'PYMODULE'),
  ('importlib.machinery',
   'C:\\Users\\123iv\\Anaconda3\\lib\\importlib\\machinery.py',
   'PYMODULE'),
  ('importlib._bootstrap_external',
   'C:\\Users\\123iv\\Anaconda3\\lib\\importlib\\_bootstrap_external.py',
   'PYMODULE'),
  ('importlib._bootstrap',
   'C:\\Users\\123iv\\Anaconda3\\lib\\importlib\\_bootstrap.py',
   'PYMODULE'),
  ('runpy', 'C:\\Users\\123iv\\Anaconda3\\lib\\runpy.py', 'PYMODULE'),
  ('shlex', 'C:\\Users\\123iv\\Anaconda3\\lib\\shlex.py', 'PYMODULE'),
  ('readline',
   'C:\\Users\\123iv\\Anaconda3\\lib\\site-packages\\readline.py',
   'PYMODULE'),
  ('pyreadline.console',
   'C:\\Users\\123iv\\Anaconda3\\lib\\site-packages\\pyreadline\\console\\__init__.py',
   'PYMODULE'),
  ('pyreadline.console.console',
   'C:\\Users\\123iv\\Anaconda3\\lib\\site-packages\\pyreadline\\console\\console.py',
   'PYMODULE'),
  ('pyreadline.console.event',
   'C:\\Users\\123iv\\Anaconda3\\lib\\site-packages\\pyreadline\\console\\event.py',
   'PYMODULE'),
  ('ctypes.wintypes',
   'C:\\Users\\123iv\\Anaconda3\\lib\\ctypes\\wintypes.py',
   'PYMODULE'),
  ('ctypes',
   'C:\\Users\\123iv\\Anaconda3\\lib\\ctypes\\__init__.py',
   'PYMODULE'),
  ('ctypes._endian',
   'C:\\Users\\123iv\\Anaconda3\\lib\\ctypes\\_endian.py',
   'PYMODULE'),
  ('ctypes.util',
   'C:\\Users\\123iv\\Anaconda3\\lib\\ctypes\\util.py',
   'PYMODULE'),
  ('ctypes._aix',
   'C:\\Users\\123iv\\Anaconda3\\lib\\ctypes\\_aix.py',
   'PYMODULE'),
  ('ctypes.macholib.dyld',
   'C:\\Users\\123iv\\Anaconda3\\lib\\ctypes\\macholib\\dyld.py',
   'PYMODULE'),
  ('ctypes.macholib',
   'C:\\Users\\123iv\\Anaconda3\\lib\\ctypes\\macholib\\__init__.py',
   'PYMODULE'),
  ('ctypes.macholib.dylib',
   'C:\\Users\\123iv\\Anaconda3\\lib\\ctypes\\macholib\\dylib.py',
   'PYMODULE'),
  ('ctypes.macholib.framework',
   'C:\\Users\\123iv\\Anaconda3\\lib\\ctypes\\macholib\\framework.py',
   'PYMODULE'),
  ('pyreadline.console.ansi',
   'C:\\Users\\123iv\\Anaconda3\\lib\\site-packages\\pyreadline\\console\\ansi.py',
   'PYMODULE'),
  ('pyreadline.keysyms',
   'C:\\Users\\123iv\\Anaconda3\\lib\\site-packages\\pyreadline\\keysyms\\__init__.py',
   'PYMODULE'),
  ('pyreadline.keysyms.keysyms',
   'C:\\Users\\123iv\\Anaconda3\\lib\\site-packages\\pyreadline\\keysyms\\keysyms.py',
   'PYMODULE'),
  ('pyreadline.keysyms.common',
   'C:\\Users\\123iv\\Anaconda3\\lib\\site-packages\\pyreadline\\keysyms\\common.py',
   'PYMODULE'),
  ('pyreadline.keysyms.ironpython_keysyms',
   'C:\\Users\\123iv\\Anaconda3\\lib\\site-packages\\pyreadline\\keysyms\\ironpython_keysyms.py',
   'PYMODULE'),
  ('pyreadline.keysyms.winconstants',
   'C:\\Users\\123iv\\Anaconda3\\lib\\site-packages\\pyreadline\\keysyms\\winconstants.py',
   'PYMODULE'),
  ('pyreadline.logger',
   'C:\\Users\\123iv\\Anaconda3\\lib\\site-packages\\pyreadline\\logger.py',
   'PYMODULE'),
  ('logging.handlers',
   'C:\\Users\\123iv\\Anaconda3\\lib\\logging\\handlers.py',
   'PYMODULE'),
  ('win32evtlogutil',
   'C:\\Users\\123iv\\Anaconda3\\lib\\site-packages\\win32\\lib\\win32evtlogutil.py',
   'PYMODULE'),
  ('winerror',
   'C:\\Users\\123iv\\Anaconda3\\lib\\site-packages\\win32\\lib\\winerror.py',
   'PYMODULE'),
  ('win32con',
   'C:\\Users\\123iv\\Anaconda3\\lib\\site-packages\\win32\\lib\\win32con.py',
   'PYMODULE'),
  ('smtplib', 'C:\\Users\\123iv\\Anaconda3\\lib\\smtplib.py', 'PYMODULE'),
  ('hmac', 'C:\\Users\\123iv\\Anaconda3\\lib\\hmac.py', 'PYMODULE'),
  ('queue', 'C:\\Users\\123iv\\Anaconda3\\lib\\queue.py', 'PYMODULE'),
  ('pyreadline.unicode_helper',
   'C:\\Users\\123iv\\Anaconda3\\lib\\site-packages\\pyreadline\\unicode_helper.py',
   'PYMODULE'),
  ('pyreadline.py3k_compat',
   'C:\\Users\\123iv\\Anaconda3\\lib\\site-packages\\pyreadline\\py3k_compat.py',
   'PYMODULE'),
  ('pyreadline.console.ironpython_console',
   'C:\\Users\\123iv\\Anaconda3\\lib\\site-packages\\pyreadline\\console\\ironpython_console.py',
   'PYMODULE'),
  ('pyreadline',
   'C:\\Users\\123iv\\Anaconda3\\lib\\site-packages\\pyreadline\\__init__.py',
   'PYMODULE'),
  ('pyreadline.release',
   'C:\\Users\\123iv\\Anaconda3\\lib\\site-packages\\pyreadline\\release.py',
   'PYMODULE'),
  ('pyreadline.modes',
   'C:\\Users\\123iv\\Anaconda3\\lib\\site-packages\\pyreadline\\modes\\__init__.py',
   'PYMODULE'),
  ('pyreadline.modes.vi',
   'C:\\Users\\123iv\\Anaconda3\\lib\\site-packages\\pyreadline\\modes\\vi.py',
   'PYMODULE'),
  ('pyreadline.lineeditor.history',
   'C:\\Users\\123iv\\Anaconda3\\lib\\site-packages\\pyreadline\\lineeditor\\history.py',
   'PYMODULE'),
  ('pyreadline.lineeditor.lineobj',
   'C:\\Users\\123iv\\Anaconda3\\lib\\site-packages\\pyreadline\\lineeditor\\lineobj.py',
   'PYMODULE'),
  ('pyreadline.lineeditor.wordmatcher',
   'C:\\Users\\123iv\\Anaconda3\\lib\\site-packages\\pyreadline\\lineeditor\\wordmatcher.py',
   'PYMODULE'),
  ('pyreadline.modes.notemacs',
   'C:\\Users\\123iv\\Anaconda3\\lib\\site-packages\\pyreadline\\modes\\notemacs.py',
   'PYMODULE'),
  ('pyreadline.modes.emacs',
   'C:\\Users\\123iv\\Anaconda3\\lib\\site-packages\\pyreadline\\modes\\emacs.py',
   'PYMODULE'),
  ('pyreadline.modes.basemode',
   'C:\\Users\\123iv\\Anaconda3\\lib\\site-packages\\pyreadline\\modes\\basemode.py',
   'PYMODULE'),
  ('pyreadline.error',
   'C:\\Users\\123iv\\Anaconda3\\lib\\site-packages\\pyreadline\\error.py',
   'PYMODULE'),
  ('pyreadline.lineeditor',
   'C:\\Users\\123iv\\Anaconda3\\lib\\site-packages\\pyreadline\\lineeditor\\__init__.py',
   'PYMODULE'),
  ('pyreadline.clipboard',
   'C:\\Users\\123iv\\Anaconda3\\lib\\site-packages\\pyreadline\\clipboard\\__init__.py',
   'PYMODULE'),
  ('pyreadline.clipboard.win32_clipboard',
   'C:\\Users\\123iv\\Anaconda3\\lib\\site-packages\\pyreadline\\clipboard\\win32_clipboard.py',
   'PYMODULE'),
  ('pyreadline.clipboard.no_clipboard',
   'C:\\Users\\123iv\\Anaconda3\\lib\\site-packages\\pyreadline\\clipboard\\no_clipboard.py',
   'PYMODULE'),
  ('pyreadline.clipboard.ironpython_clipboard',
   'C:\\Users\\123iv\\Anaconda3\\lib\\site-packages\\pyreadline\\clipboard\\ironpython_clipboard.py',
   'PYMODULE'),
  ('pyreadline.rlmain',
   'C:\\Users\\123iv\\Anaconda3\\lib\\site-packages\\pyreadline\\rlmain.py',
   'PYMODULE'),
  ('glob', 'C:\\Users\\123iv\\Anaconda3\\lib\\glob.py', 'PYMODULE'),
  ('code', 'C:\\Users\\123iv\\Anaconda3\\lib\\code.py', 'PYMODULE'),
  ('codeop', 'C:\\Users\\123iv\\Anaconda3\\lib\\codeop.py', 'PYMODULE'),
  ('dis', 'C:\\Users\\123iv\\Anaconda3\\lib\\dis.py', 'PYMODULE'),
  ('opcode', 'C:\\Users\\123iv\\Anaconda3\\lib\\opcode.py', 'PYMODULE'),
  ('bdb', 'C:\\Users\\123iv\\Anaconda3\\lib\\bdb.py', 'PYMODULE'),
  ('cmd', 'C:\\Users\\123iv\\Anaconda3\\lib\\cmd.py', 'PYMODULE'),
  ('inspect', 'C:\\Users\\123iv\\Anaconda3\\lib\\inspect.py', 'PYMODULE'),
  ('ast', 'C:\\Users\\123iv\\Anaconda3\\lib\\ast.py', 'PYMODULE'),
  ('difflib', 'C:\\Users\\123iv\\Anaconda3\\lib\\difflib.py', 'PYMODULE'),
  ('__future__', 'C:\\Users\\123iv\\Anaconda3\\lib\\__future__.py', 'PYMODULE'),
  ('pickle', 'C:\\Users\\123iv\\Anaconda3\\lib\\pickle.py', 'PYMODULE'),
  ('_compat_pickle',
   'C:\\Users\\123iv\\Anaconda3\\lib\\_compat_pickle.py',
   'PYMODULE'),
  ('struct', 'C:\\Users\\123iv\\Anaconda3\\lib\\struct.py', 'PYMODULE'),
  ('socket', 'C:\\Users\\123iv\\Anaconda3\\lib\\socket.py', 'PYMODULE'),
  ('subprocess', 'C:\\Users\\123iv\\Anaconda3\\lib\\subprocess.py', 'PYMODULE'),
  ('copy', 'C:\\Users\\123iv\\Anaconda3\\lib\\copy.py', 'PYMODULE'),
  ('setting_wind',
   'C:\\Users\\123iv\\OneDrive\\Рабочий стол\\steel_com_1\\setting_wind.py',
   'PYMODULE'),
  ('serial',
   'C:\\Users\\123iv\\Anaconda3\\lib\\site-packages\\serial\\__init__.py',
   'PYMODULE'),
  ('serial.serialjava',
   'C:\\Users\\123iv\\Anaconda3\\lib\\site-packages\\serial\\serialjava.py',
   'PYMODULE'),
  ('serial.serialposix',
   'C:\\Users\\123iv\\Anaconda3\\lib\\site-packages\\serial\\serialposix.py',
   'PYMODULE'),
  ('serial.serialwin32',
   'C:\\Users\\123iv\\Anaconda3\\lib\\site-packages\\serial\\serialwin32.py',
   'PYMODULE'),
  ('serial.win32',
   'C:\\Users\\123iv\\Anaconda3\\lib\\site-packages\\serial\\win32.py',
   'PYMODULE'),
  ('serial.serialcli',
   'C:\\Users\\123iv\\Anaconda3\\lib\\site-packages\\serial\\serialcli.py',
   'PYMODULE'),
  ('serial.serialutil',
   'C:\\Users\\123iv\\Anaconda3\\lib\\site-packages\\serial\\serialutil.py',
   'PYMODULE'),
  ('pymodbus.client.sync',
   'C:\\Users\\123iv\\Anaconda3\\lib\\site-packages\\pymodbus\\client\\sync.py',
   'PYMODULE'),
  ('pymodbus.client',
   'C:\\Users\\123iv\\Anaconda3\\lib\\site-packages\\pymodbus\\client\\__init__.py',
   'PYMODULE'),
  ('pymodbus',
   'C:\\Users\\123iv\\Anaconda3\\lib\\site-packages\\pymodbus\\__init__.py',
   'PYMODULE'),
  ('pymodbus.version',
   'C:\\Users\\123iv\\Anaconda3\\lib\\site-packages\\pymodbus\\version.py',
   'PYMODULE'),
  ('pymodbus.client.common',
   'C:\\Users\\123iv\\Anaconda3\\lib\\site-packages\\pymodbus\\client\\common.py',
   'PYMODULE'),
  ('pymodbus.other_message',
   'C:\\Users\\123iv\\Anaconda3\\lib\\site-packages\\pymodbus\\other_message.py',
   'PYMODULE'),
  ('pymodbus.compat',
   'C:\\Users\\123iv\\Anaconda3\\lib\\site-packages\\pymodbus\\compat.py',
   'PYMODULE'),
  ('imp', 'C:\\Users\\123iv\\Anaconda3\\lib\\imp.py', 'PYMODULE'),
  ('six',
   'C:\\Users\\123iv\\Anaconda3\\lib\\site-packages\\six.py',
   'PYMODULE'),
  ('pymodbus.device',
   'C:\\Users\\123iv\\Anaconda3\\lib\\site-packages\\pymodbus\\device.py',
   'PYMODULE'),
  ('pymodbus.interfaces',
   'C:\\Users\\123iv\\Anaconda3\\lib\\site-packages\\pymodbus\\interfaces.py',
   'PYMODULE'),
  ('pymodbus.pdu',
   'C:\\Users\\123iv\\Anaconda3\\lib\\site-packages\\pymodbus\\pdu.py',
   'PYMODULE'),
  ('pymodbus.file_message',
   'C:\\Users\\123iv\\Anaconda3\\lib\\site-packages\\pymodbus\\file_message.py',
   'PYMODULE'),
  ('pymodbus.diag_message',
   'C:\\Users\\123iv\\Anaconda3\\lib\\site-packages\\pymodbus\\diag_message.py',
   'PYMODULE'),
  ('pymodbus.register_write_message',
   'C:\\Users\\123iv\\Anaconda3\\lib\\site-packages\\pymodbus\\register_write_message.py',
   'PYMODULE'),
  ('pymodbus.register_read_message',
   'C:\\Users\\123iv\\Anaconda3\\lib\\site-packages\\pymodbus\\register_read_message.py',
   'PYMODULE'),
  ('pymodbus.bit_write_message',
   'C:\\Users\\123iv\\Anaconda3\\lib\\site-packages\\pymodbus\\bit_write_message.py',
   'PYMODULE'),
  ('pymodbus.bit_read_message',
   'C:\\Users\\123iv\\Anaconda3\\lib\\site-packages\\pymodbus\\bit_read_message.py',
   'PYMODULE'),
  ('pymodbus.transaction',
   'C:\\Users\\123iv\\Anaconda3\\lib\\site-packages\\pymodbus\\transaction.py',
   'PYMODULE'),
  ('pymodbus.framer.binary_framer',
   'C:\\Users\\123iv\\Anaconda3\\lib\\site-packages\\pymodbus\\framer\\binary_framer.py',
   'PYMODULE'),
  ('pymodbus.framer',
   'C:\\Users\\123iv\\Anaconda3\\lib\\site-packages\\pymodbus\\framer\\__init__.py',
   'PYMODULE'),
  ('pymodbus.framer.tls_framer',
   'C:\\Users\\123iv\\Anaconda3\\lib\\site-packages\\pymodbus\\framer\\tls_framer.py',
   'PYMODULE'),
  ('pymodbus.framer.socket_framer',
   'C:\\Users\\123iv\\Anaconda3\\lib\\site-packages\\pymodbus\\framer\\socket_framer.py',
   'PYMODULE'),
  ('pymodbus.framer.rtu_framer',
   'C:\\Users\\123iv\\Anaconda3\\lib\\site-packages\\pymodbus\\framer\\rtu_framer.py',
   'PYMODULE'),
  ('pymodbus.framer.ascii_framer',
   'C:\\Users\\123iv\\Anaconda3\\lib\\site-packages\\pymodbus\\framer\\ascii_framer.py',
   'PYMODULE'),
  ('pymodbus.exceptions',
   'C:\\Users\\123iv\\Anaconda3\\lib\\site-packages\\pymodbus\\exceptions.py',
   'PYMODULE'),
  ('pymodbus.factory',
   'C:\\Users\\123iv\\Anaconda3\\lib\\site-packages\\pymodbus\\factory.py',
   'PYMODULE'),
  ('pymodbus.mei_message',
   'C:\\Users\\123iv\\Anaconda3\\lib\\site-packages\\pymodbus\\mei_message.py',
   'PYMODULE'),
  ('pymodbus.utilities',
   'C:\\Users\\123iv\\Anaconda3\\lib\\site-packages\\pymodbus\\utilities.py',
   'PYMODULE'),
  ('pymodbus.payload',
   'C:\\Users\\123iv\\Anaconda3\\lib\\site-packages\\pymodbus\\payload.py',
   'PYMODULE'),
  ('pymodbus.constants',
   'C:\\Users\\123iv\\Anaconda3\\lib\\site-packages\\pymodbus\\constants.py',
   'PYMODULE'),
  ('PyQt5',
   'C:\\Users\\123iv\\Anaconda3\\lib\\site-packages\\PyQt5\\__init__.py',
   'PYMODULE')],
 [('api-ms-win-crt-math-l1-1-0.dll',
   'C:\\Users\\123iv\\Anaconda3\\api-ms-win-crt-math-l1-1-0.dll',
   'BINARY'),
  ('api-ms-win-crt-heap-l1-1-0.dll',
   'C:\\Users\\123iv\\Anaconda3\\api-ms-win-crt-heap-l1-1-0.dll',
   'BINARY'),
  ('api-ms-win-crt-runtime-l1-1-0.dll',
   'C:\\Users\\123iv\\Anaconda3\\api-ms-win-crt-runtime-l1-1-0.dll',
   'BINARY'),
  ('python37.dll', 'C:\\Users\\123iv\\Anaconda3\\python37.dll', 'BINARY'),
  ('VCRUNTIME140.dll',
   'C:\\Users\\123iv\\Anaconda3\\VCRUNTIME140.dll',
   'BINARY'),
  ('api-ms-win-crt-stdio-l1-1-0.dll',
   'C:\\Users\\123iv\\Anaconda3\\api-ms-win-crt-stdio-l1-1-0.dll',
   'BINARY'),
  ('api-ms-win-crt-locale-l1-1-0.dll',
   'C:\\Users\\123iv\\Anaconda3\\api-ms-win-crt-locale-l1-1-0.dll',
   'BINARY'),
  ('ucrtbase.dll', 'C:\\Users\\123iv\\Anaconda3\\ucrtbase.dll', 'BINARY'),
  ('api-ms-win-crt-time-l1-1-0.dll',
   'C:\\Users\\123iv\\Anaconda3\\api-ms-win-crt-time-l1-1-0.dll',
   'BINARY'),
  ('api-ms-win-crt-conio-l1-1-0.dll',
   'C:\\Users\\123iv\\Anaconda3\\api-ms-win-crt-conio-l1-1-0.dll',
   'BINARY'),
  ('api-ms-win-crt-convert-l1-1-0.dll',
   'C:\\Users\\123iv\\Anaconda3\\api-ms-win-crt-convert-l1-1-0.dll',
   'BINARY'),
  ('api-ms-win-crt-process-l1-1-0.dll',
   'C:\\Users\\123iv\\Anaconda3\\api-ms-win-crt-process-l1-1-0.dll',
   'BINARY'),
  ('api-ms-win-crt-environment-l1-1-0.dll',
   'C:\\Users\\123iv\\Anaconda3\\api-ms-win-crt-environment-l1-1-0.dll',
   'BINARY'),
  ('api-ms-win-crt-filesystem-l1-1-0.dll',
   'C:\\Users\\123iv\\Anaconda3\\api-ms-win-crt-filesystem-l1-1-0.dll',
   'BINARY'),
  ('api-ms-win-crt-string-l1-1-0.dll',
   'C:\\Users\\123iv\\Anaconda3\\api-ms-win-crt-string-l1-1-0.dll',
   'BINARY'),
  ('api-ms-win-core-processthreads-l1-1-0.dll',
   'C:\\Users\\123iv\\Anaconda3\\api-ms-win-core-processthreads-l1-1-0.dll',
   'BINARY'),
  ('api-ms-win-core-rtlsupport-l1-1-0.dll',
   'C:\\Users\\123iv\\Anaconda3\\api-ms-win-core-rtlsupport-l1-1-0.dll',
   'BINARY'),
  ('api-ms-win-core-localization-l1-2-0.dll',
   'C:\\Users\\123iv\\Anaconda3\\api-ms-win-core-localization-l1-2-0.dll',
   'BINARY'),
  ('api-ms-win-core-interlocked-l1-1-0.dll',
   'C:\\Users\\123iv\\Anaconda3\\api-ms-win-core-interlocked-l1-1-0.dll',
   'BINARY'),
  ('api-ms-win-core-namedpipe-l1-1-0.dll',
   'C:\\Users\\123iv\\Anaconda3\\api-ms-win-core-namedpipe-l1-1-0.dll',
   'BINARY'),
  ('api-ms-win-core-processenvironment-l1-1-0.dll',
   'C:\\Users\\123iv\\Anaconda3\\api-ms-win-core-processenvironment-l1-1-0.dll',
   'BINARY'),
  ('api-ms-win-core-heap-l1-1-0.dll',
   'C:\\Users\\123iv\\Anaconda3\\api-ms-win-core-heap-l1-1-0.dll',
   'BINARY'),
  ('api-ms-win-core-string-l1-1-0.dll',
   'C:\\Users\\123iv\\Anaconda3\\api-ms-win-core-string-l1-1-0.dll',
   'BINARY'),
  ('api-ms-win-core-timezone-l1-1-0.dll',
   'C:\\Users\\123iv\\Anaconda3\\api-ms-win-core-timezone-l1-1-0.dll',
   'BINARY'),
  ('api-ms-win-core-console-l1-1-0.dll',
   'C:\\Users\\123iv\\Anaconda3\\api-ms-win-core-console-l1-1-0.dll',
   'BINARY'),
  ('api-ms-win-core-libraryloader-l1-1-0.dll',
   'C:\\Users\\123iv\\Anaconda3\\api-ms-win-core-libraryloader-l1-1-0.dll',
   'BINARY'),
  ('api-ms-win-core-debug-l1-1-0.dll',
   'C:\\Users\\123iv\\Anaconda3\\api-ms-win-core-debug-l1-1-0.dll',
   'BINARY'),
  ('api-ms-win-core-handle-l1-1-0.dll',
   'C:\\Users\\123iv\\Anaconda3\\api-ms-win-core-handle-l1-1-0.dll',
   'BINARY'),
  ('api-ms-win-core-profile-l1-1-0.dll',
   'C:\\Users\\123iv\\Anaconda3\\api-ms-win-core-profile-l1-1-0.dll',
   'BINARY'),
  ('api-ms-win-core-memory-l1-1-0.dll',
   'C:\\Users\\123iv\\Anaconda3\\api-ms-win-core-memory-l1-1-0.dll',
   'BINARY'),
  ('api-ms-win-core-util-l1-1-0.dll',
   'C:\\Users\\123iv\\Anaconda3\\api-ms-win-core-util-l1-1-0.dll',
   'BINARY'),
  ('api-ms-win-core-file-l2-1-0.dll',
   'C:\\Users\\123iv\\Anaconda3\\api-ms-win-core-file-l2-1-0.dll',
   'BINARY'),
  ('api-ms-win-core-file-l1-1-0.dll',
   'C:\\Users\\123iv\\Anaconda3\\api-ms-win-core-file-l1-1-0.dll',
   'BINARY'),
  ('api-ms-win-core-datetime-l1-1-0.dll',
   'C:\\Users\\123iv\\Anaconda3\\api-ms-win-core-datetime-l1-1-0.dll',
   'BINARY'),
  ('api-ms-win-core-errorhandling-l1-1-0.dll',
   'C:\\Users\\123iv\\Anaconda3\\api-ms-win-core-errorhandling-l1-1-0.dll',
   'BINARY'),
  ('api-ms-win-core-processthreads-l1-1-1.dll',
   'C:\\Users\\123iv\\Anaconda3\\api-ms-win-core-processthreads-l1-1-1.dll',
   'BINARY'),
  ('api-ms-win-core-file-l1-2-0.dll',
   'C:\\Users\\123iv\\Anaconda3\\api-ms-win-core-file-l1-2-0.dll',
   'BINARY'),
  ('api-ms-win-core-synch-l1-1-0.dll',
   'C:\\Users\\123iv\\Anaconda3\\api-ms-win-core-synch-l1-1-0.dll',
   'BINARY'),
  ('api-ms-win-core-sysinfo-l1-1-0.dll',
   'C:\\Users\\123iv\\Anaconda3\\api-ms-win-core-sysinfo-l1-1-0.dll',
   'BINARY'),
  ('api-ms-win-core-synch-l1-2-0.dll',
   'C:\\Users\\123iv\\Anaconda3\\api-ms-win-core-synch-l1-2-0.dll',
   'BINARY'),
  ('icuuc58.dll',
   'C:\\Users\\123iv\\Anaconda3\\Library\\bin\\icuuc58.dll',
   'BINARY'),
  ('PyQt5\\Qt\\plugins\\imageformats\\qsvg.dll',
   'C:\\Users\\123iv\\Anaconda3\\Library\\plugins\\imageformats\\qsvg.dll',
   'BINARY'),
  ('PyQt5\\Qt\\plugins\\platforms\\qminimal.dll',
   'C:\\Users\\123iv\\Anaconda3\\Library\\plugins\\platforms\\qminimal.dll',
   'BINARY'),
  ('PyQt5\\Qt\\plugins\\imageformats\\qgif.dll',
   'C:\\Users\\123iv\\Anaconda3\\Library\\plugins\\imageformats\\qgif.dll',
   'BINARY'),
  ('PyQt5\\Qt\\plugins\\imageformats\\qwbmp.dll',
   'C:\\Users\\123iv\\Anaconda3\\Library\\plugins\\imageformats\\qwbmp.dll',
   'BINARY'),
  ('icudt58.dll',
   'C:\\Users\\123iv\\Anaconda3\\Library\\bin\\icudt58.dll',
   'BINARY'),
  ('PyQt5\\Qt\\plugins\\imageformats\\qjpeg.dll',
   'C:\\Users\\123iv\\Anaconda3\\Library\\plugins\\imageformats\\qjpeg.dll',
   'BINARY'),
  ('PyQt5\\Qt\\plugins\\platforms\\qwindows.dll',
   'C:\\Users\\123iv\\Anaconda3\\Library\\plugins\\platforms\\qwindows.dll',
   'BINARY'),
  ('icuin58.dll',
   'C:\\Users\\123iv\\Anaconda3\\Library\\bin\\icuin58.dll',
   'BINARY'),
  ('opengl32sw.dll',
   'C:\\Users\\123iv\\Anaconda3\\Library\\bin\\opengl32sw.dll',
   'BINARY'),
  ('PyQt5\\Qt\\plugins\\imageformats\\qtiff.dll',
   'C:\\Users\\123iv\\Anaconda3\\Library\\plugins\\imageformats\\qtiff.dll',
   'BINARY'),
  ('PyQt5\\Qt\\plugins\\imageformats\\qtga.dll',
   'C:\\Users\\123iv\\Anaconda3\\Library\\plugins\\imageformats\\qtga.dll',
   'BINARY'),
  ('PyQt5\\Qt\\plugins\\imageformats\\qicns.dll',
   'C:\\Users\\123iv\\Anaconda3\\Library\\plugins\\imageformats\\qicns.dll',
   'BINARY'),
  ('PyQt5\\Qt\\plugins\\platforminputcontexts\\qtvirtualkeyboardplugin.dll',
   'C:\\Users\\123iv\\Anaconda3\\Library\\plugins\\platforminputcontexts\\qtvirtualkeyboardplugin.dll',
   'BINARY'),
  ('PyQt5\\Qt\\plugins\\imageformats\\qico.dll',
   'C:\\Users\\123iv\\Anaconda3\\Library\\plugins\\imageformats\\qico.dll',
   'BINARY'),
  ('PyQt5\\Qt\\plugins\\imageformats\\qwebp.dll',
   'C:\\Users\\123iv\\Anaconda3\\Library\\plugins\\imageformats\\qwebp.dll',
   'BINARY'),
  ('PyQt5\\Qt\\plugins\\iconengines\\qsvgicon.dll',
   'C:\\Users\\123iv\\Anaconda3\\Library\\plugins\\iconengines\\qsvgicon.dll',
   'BINARY'),
  ('PyQt5\\Qt\\plugins\\platforms\\qoffscreen.dll',
   'C:\\Users\\123iv\\Anaconda3\\Library\\plugins\\platforms\\qoffscreen.dll',
   'BINARY'),
  ('unicodedata',
   'C:\\Users\\123iv\\Anaconda3\\DLLs\\unicodedata.pyd',
   'EXTENSION'),
  ('_bz2', 'C:\\Users\\123iv\\Anaconda3\\DLLs\\_bz2.pyd', 'EXTENSION'),
  ('_lzma', 'C:\\Users\\123iv\\Anaconda3\\DLLs\\_lzma.pyd', 'EXTENSION'),
  ('select', 'C:\\Users\\123iv\\Anaconda3\\DLLs\\select.pyd', 'EXTENSION'),
  ('_hashlib', 'C:\\Users\\123iv\\Anaconda3\\DLLs\\_hashlib.pyd', 'EXTENSION'),
  ('_ssl', 'C:\\Users\\123iv\\Anaconda3\\DLLs\\_ssl.pyd', 'EXTENSION'),
  ('pyexpat', 'C:\\Users\\123iv\\Anaconda3\\DLLs\\pyexpat.pyd', 'EXTENSION'),
  ('_ctypes', 'C:\\Users\\123iv\\Anaconda3\\DLLs\\_ctypes.pyd', 'EXTENSION'),
  ('win32evtlog',
   'C:\\Users\\123iv\\Anaconda3\\lib\\site-packages\\win32\\win32evtlog.pyd',
   'EXTENSION'),
  ('win32api',
   'C:\\Users\\123iv\\Anaconda3\\lib\\site-packages\\win32\\win32api.pyd',
   'EXTENSION'),
  ('_queue', 'C:\\Users\\123iv\\Anaconda3\\DLLs\\_queue.pyd', 'EXTENSION'),
  ('_socket', 'C:\\Users\\123iv\\Anaconda3\\DLLs\\_socket.pyd', 'EXTENSION'),
  ('PyQt5.QtCore',
   'C:\\Users\\123iv\\Anaconda3\\lib\\site-packages\\PyQt5\\QtCore.pyd',
   'EXTENSION'),
  ('sip',
   'C:\\Users\\123iv\\Anaconda3\\lib\\site-packages\\sip.pyd',
   'EXTENSION'),
  ('PyQt5.QtGui',
   'C:\\Users\\123iv\\Anaconda3\\lib\\site-packages\\PyQt5\\QtGui.pyd',
   'EXTENSION'),
  ('PyQt5.QtWidgets',
   'C:\\Users\\123iv\\Anaconda3\\lib\\site-packages\\PyQt5\\QtWidgets.pyd',
   'EXTENSION'),
  ('api-ms-win-crt-utility-l1-1-0.dll',
   'C:\\Users\\123iv\\Anaconda3\\Library\\bin\\api-ms-win-crt-utility-l1-1-0.dll',
   'BINARY'),
  ('Qt5Gui.dll',
   'C:\\Users\\123iv\\Anaconda3\\Library\\bin\\Qt5Gui.dll',
   'BINARY'),
  ('Qt5Svg.dll',
   'C:\\Users\\123iv\\Anaconda3\\Library\\bin\\Qt5Svg.dll',
   'BINARY'),
  ('Qt5Core.dll',
   'C:\\Users\\123iv\\Anaconda3\\Library\\bin\\Qt5Core.dll',
   'BINARY'),
  ('libpng16.dll',
   'C:\\Users\\123iv\\Anaconda3\\Library\\bin\\libpng16.dll',
   'BINARY'),
  ('zlib.dll', 'C:\\Users\\123iv\\Anaconda3\\Library\\bin\\zlib.dll', 'BINARY'),
  ('libjpeg.dll',
   'C:\\Users\\123iv\\Anaconda3\\Library\\bin\\libjpeg.dll',
   'BINARY'),
  ('MSVCP140.dll', 'C:\\Users\\123iv\\Anaconda3\\MSVCP140.dll', 'BINARY'),
  ('Qt5Qml.dll',
   'C:\\Users\\123iv\\Anaconda3\\Library\\bin\\Qt5Qml.dll',
   'BINARY'),
  ('Qt5Quick.dll',
   'C:\\Users\\123iv\\Anaconda3\\Library\\bin\\Qt5Quick.dll',
   'BINARY'),
  ('libcrypto-1_1-x64.dll',
   'C:\\Users\\123iv\\Anaconda3\\Library\\bin\\libcrypto-1_1-x64.dll',
   'BINARY'),
  ('libssl-1_1-x64.dll',
   'C:\\Users\\123iv\\Anaconda3\\Library\\bin\\libssl-1_1-x64.dll',
   'BINARY'),
  ('pywintypes37.dll',
   'C:\\Users\\123iv\\Anaconda3\\lib\\site-packages\\win32\\pywintypes37.dll',
   'BINARY'),
  ('python3.dll', 'C:\\Users\\123iv\\Anaconda3\\python3.dll', 'BINARY'),
  ('Qt5Widgets.dll',
   'C:\\Users\\123iv\\Anaconda3\\Library\\bin\\Qt5Widgets.dll',
   'BINARY'),
  ('Qt5Network.dll',
   'C:\\Users\\123iv\\Anaconda3\\Library\\bin\\Qt5Network.dll',
   'BINARY')],
 [],
 [],
 [('base_library.zip',
   'C:\\Users\\123iv\\OneDrive\\Рабочий '
   'стол\\steel_com_1\\build\\main_wind\\base_library.zip',
   'DATA'),
  ('PyQt5\\Qt\\translations\\qtbase_ca.qm',
   'C:\\Users\\123iv\\Anaconda3\\Library\\translations\\qtbase_ca.qm',
   'DATA'),
  ('PyQt5\\Qt\\translations\\qtbase_en.qm',
   'C:\\Users\\123iv\\Anaconda3\\Library\\translations\\qtbase_en.qm',
   'DATA'),
  ('PyQt5\\Qt\\translations\\qtbase_pl.qm',
   'C:\\Users\\123iv\\Anaconda3\\Library\\translations\\qtbase_pl.qm',
   'DATA'),
  ('PyQt5\\Qt\\translations\\qtbase_ko.qm',
   'C:\\Users\\123iv\\Anaconda3\\Library\\translations\\qtbase_ko.qm',
   'DATA'),
  ('PyQt5\\Qt\\translations\\qtbase_es.qm',
   'C:\\Users\\123iv\\Anaconda3\\Library\\translations\\qtbase_es.qm',
   'DATA'),
  ('PyQt5\\Qt\\translations\\qtbase_uk.qm',
   'C:\\Users\\123iv\\Anaconda3\\Library\\translations\\qtbase_uk.qm',
   'DATA'),
  ('PyQt5\\Qt\\translations\\qtbase_hu.qm',
   'C:\\Users\\123iv\\Anaconda3\\Library\\translations\\qtbase_hu.qm',
   'DATA'),
  ('PyQt5\\Qt\\translations\\qtbase_it.qm',
   'C:\\Users\\123iv\\Anaconda3\\Library\\translations\\qtbase_it.qm',
   'DATA'),
  ('PyQt5\\Qt\\translations\\qtbase_de.qm',
   'C:\\Users\\123iv\\Anaconda3\\Library\\translations\\qtbase_de.qm',
   'DATA'),
  ('PyQt5\\Qt\\translations\\qtbase_fi.qm',
   'C:\\Users\\123iv\\Anaconda3\\Library\\translations\\qtbase_fi.qm',
   'DATA'),
  ('PyQt5\\Qt\\translations\\qtbase_bg.qm',
   'C:\\Users\\123iv\\Anaconda3\\Library\\translations\\qtbase_bg.qm',
   'DATA'),
  ('PyQt5\\Qt\\translations\\qtbase_lv.qm',
   'C:\\Users\\123iv\\Anaconda3\\Library\\translations\\qtbase_lv.qm',
   'DATA'),
  ('PyQt5\\Qt\\translations\\qtbase_sk.qm',
   'C:\\Users\\123iv\\Anaconda3\\Library\\translations\\qtbase_sk.qm',
   'DATA'),
  ('PyQt5\\Qt\\translations\\qtbase_ar.qm',
   'C:\\Users\\123iv\\Anaconda3\\Library\\translations\\qtbase_ar.qm',
   'DATA'),
  ('PyQt5\\Qt\\translations\\qtbase_fr.qm',
   'C:\\Users\\123iv\\Anaconda3\\Library\\translations\\qtbase_fr.qm',
   'DATA'),
  ('PyQt5\\Qt\\translations\\qtbase_ru.qm',
   'C:\\Users\\123iv\\Anaconda3\\Library\\translations\\qtbase_ru.qm',
   'DATA'),
  ('PyQt5\\Qt\\translations\\qtbase_he.qm',
   'C:\\Users\\123iv\\Anaconda3\\Library\\translations\\qtbase_he.qm',
   'DATA'),
  ('PyQt5\\Qt\\translations\\qtbase_ja.qm',
   'C:\\Users\\123iv\\Anaconda3\\Library\\translations\\qtbase_ja.qm',
   'DATA'),
  ('PyQt5\\Qt\\translations\\qtbase_da.qm',
   'C:\\Users\\123iv\\Anaconda3\\Library\\translations\\qtbase_da.qm',
   'DATA'),
  ('PyQt5\\Qt\\translations\\qtbase_gd.qm',
   'C:\\Users\\123iv\\Anaconda3\\Library\\translations\\qtbase_gd.qm',
   'DATA'),
  ('PyQt5\\Library\\bin\\qt.conf',
   'C:\\Users\\123iv\\Anaconda3\\Library\\bin\\qt.conf',
   'DATA'),
  ('PyQt5\\Qt\\translations\\qtbase_cs.qm',
   'C:\\Users\\123iv\\Anaconda3\\Library\\translations\\qtbase_cs.qm',
   'DATA')],
 [])
