('C:\\Users\\123iv\\OneDrive\\Рабочий '
 'стол\\steel_com_1\\build\\main_wind\\PKG-00.pkg',
 {'BINARY': 1,
  'DATA': 1,
  'EXECUTABLE': 1,
  'EXTENSION': 1,
  'PYMODULE': 1,
  'PYSOURCE': 1,
  'PYZ': 0},
 [('PYZ-00.pyz',
   'C:\\Users\\123iv\\OneDrive\\Рабочий '
   'стол\\steel_com_1\\build\\main_wind\\PYZ-00.pyz',
   'PYZ'),
  ('struct', 'C:\\Users\\123iv\\Anaconda3\\lib\\struct.pyo', 'PYMODULE'),
  ('pyimod01_os_path',
   'C:\\Users\\123iv\\AppData\\Roaming\\Python\\Python37\\site-packages\\PyInstaller\\loader\\pyimod01_os_path.pyc',
   'PYMODULE'),
  ('pyimod02_archive',
   'C:\\Users\\123iv\\AppData\\Roaming\\Python\\Python37\\site-packages\\PyInstaller\\loader\\pyimod02_archive.pyc',
   'PYMODULE'),
  ('pyimod03_importers',
   'C:\\Users\\123iv\\AppData\\Roaming\\Python\\Python37\\site-packages\\PyInstaller\\loader\\pyimod03_importers.pyc',
   'PYMODULE'),
  ('pyiboot01_bootstrap',
   'C:\\Users\\123iv\\AppData\\Roaming\\Python\\Python37\\site-packages\\PyInstaller\\loader\\pyiboot01_bootstrap.py',
   'PYSOURCE'),
  ('pyi_rth_pyqt5',
   'C:\\Users\\123iv\\AppData\\Roaming\\Python\\Python37\\site-packages\\PyInstaller\\loader\\rthooks\\pyi_rth_pyqt5.py',
   'PYSOURCE'),
  ('main_wind',
   'C:\\Users\\123iv\\OneDrive\\Рабочий стол\\steel_com_1\\main_wind.py',
   'PYSOURCE'),
  ('api-ms-win-crt-math-l1-1-0.dll',
   'C:\\Users\\123iv\\Anaconda3\\api-ms-win-crt-math-l1-1-0.dll',
   'BINARY'),
  ('api-ms-win-crt-heap-l1-1-0.dll',
   'C:\\Users\\123iv\\Anaconda3\\api-ms-win-crt-heap-l1-1-0.dll',
   'BINARY'),
  ('api-ms-win-crt-runtime-l1-1-0.dll',
   'C:\\Users\\123iv\\Anaconda3\\api-ms-win-crt-runtime-l1-1-0.dll',
   'BINARY'),
  ('python37.dll', 'C:\\Users\\123iv\\Anaconda3\\python37.dll', 'BINARY'),
  ('VCRUNTIME140.dll',
   'C:\\Users\\123iv\\Anaconda3\\VCRUNTIME140.dll',
   'BINARY'),
  ('api-ms-win-crt-stdio-l1-1-0.dll',
   'C:\\Users\\123iv\\Anaconda3\\api-ms-win-crt-stdio-l1-1-0.dll',
   'BINARY'),
  ('api-ms-win-crt-locale-l1-1-0.dll',
   'C:\\Users\\123iv\\Anaconda3\\api-ms-win-crt-locale-l1-1-0.dll',
   'BINARY'),
  ('ucrtbase.dll', 'C:\\Users\\123iv\\Anaconda3\\ucrtbase.dll', 'BINARY'),
  ('api-ms-win-crt-time-l1-1-0.dll',
   'C:\\Users\\123iv\\Anaconda3\\api-ms-win-crt-time-l1-1-0.dll',
   'BINARY'),
  ('api-ms-win-crt-conio-l1-1-0.dll',
   'C:\\Users\\123iv\\Anaconda3\\api-ms-win-crt-conio-l1-1-0.dll',
   'BINARY'),
  ('api-ms-win-crt-convert-l1-1-0.dll',
   'C:\\Users\\123iv\\Anaconda3\\api-ms-win-crt-convert-l1-1-0.dll',
   'BINARY'),
  ('api-ms-win-crt-process-l1-1-0.dll',
   'C:\\Users\\123iv\\Anaconda3\\api-ms-win-crt-process-l1-1-0.dll',
   'BINARY'),
  ('api-ms-win-crt-environment-l1-1-0.dll',
   'C:\\Users\\123iv\\Anaconda3\\api-ms-win-crt-environment-l1-1-0.dll',
   'BINARY'),
  ('api-ms-win-crt-filesystem-l1-1-0.dll',
   'C:\\Users\\123iv\\Anaconda3\\api-ms-win-crt-filesystem-l1-1-0.dll',
   'BINARY'),
  ('api-ms-win-crt-string-l1-1-0.dll',
   'C:\\Users\\123iv\\Anaconda3\\api-ms-win-crt-string-l1-1-0.dll',
   'BINARY'),
  ('api-ms-win-core-processthreads-l1-1-0.dll',
   'C:\\Users\\123iv\\Anaconda3\\api-ms-win-core-processthreads-l1-1-0.dll',
   'BINARY'),
  ('api-ms-win-core-rtlsupport-l1-1-0.dll',
   'C:\\Users\\123iv\\Anaconda3\\api-ms-win-core-rtlsupport-l1-1-0.dll',
   'BINARY'),
  ('api-ms-win-core-localization-l1-2-0.dll',
   'C:\\Users\\123iv\\Anaconda3\\api-ms-win-core-localization-l1-2-0.dll',
   'BINARY'),
  ('api-ms-win-core-interlocked-l1-1-0.dll',
   'C:\\Users\\123iv\\Anaconda3\\api-ms-win-core-interlocked-l1-1-0.dll',
   'BINARY'),
  ('api-ms-win-core-namedpipe-l1-1-0.dll',
   'C:\\Users\\123iv\\Anaconda3\\api-ms-win-core-namedpipe-l1-1-0.dll',
   'BINARY'),
  ('api-ms-win-core-processenvironment-l1-1-0.dll',
   'C:\\Users\\123iv\\Anaconda3\\api-ms-win-core-processenvironment-l1-1-0.dll',
   'BINARY'),
  ('api-ms-win-core-heap-l1-1-0.dll',
   'C:\\Users\\123iv\\Anaconda3\\api-ms-win-core-heap-l1-1-0.dll',
   'BINARY'),
  ('api-ms-win-core-string-l1-1-0.dll',
   'C:\\Users\\123iv\\Anaconda3\\api-ms-win-core-string-l1-1-0.dll',
   'BINARY'),
  ('api-ms-win-core-timezone-l1-1-0.dll',
   'C:\\Users\\123iv\\Anaconda3\\api-ms-win-core-timezone-l1-1-0.dll',
   'BINARY'),
  ('api-ms-win-core-console-l1-1-0.dll',
   'C:\\Users\\123iv\\Anaconda3\\api-ms-win-core-console-l1-1-0.dll',
   'BINARY'),
  ('api-ms-win-core-libraryloader-l1-1-0.dll',
   'C:\\Users\\123iv\\Anaconda3\\api-ms-win-core-libraryloader-l1-1-0.dll',
   'BINARY'),
  ('api-ms-win-core-debug-l1-1-0.dll',
   'C:\\Users\\123iv\\Anaconda3\\api-ms-win-core-debug-l1-1-0.dll',
   'BINARY'),
  ('api-ms-win-core-handle-l1-1-0.dll',
   'C:\\Users\\123iv\\Anaconda3\\api-ms-win-core-handle-l1-1-0.dll',
   'BINARY'),
  ('api-ms-win-core-profile-l1-1-0.dll',
   'C:\\Users\\123iv\\Anaconda3\\api-ms-win-core-profile-l1-1-0.dll',
   'BINARY'),
  ('api-ms-win-core-memory-l1-1-0.dll',
   'C:\\Users\\123iv\\Anaconda3\\api-ms-win-core-memory-l1-1-0.dll',
   'BINARY'),
  ('api-ms-win-core-util-l1-1-0.dll',
   'C:\\Users\\123iv\\Anaconda3\\api-ms-win-core-util-l1-1-0.dll',
   'BINARY'),
  ('api-ms-win-core-file-l2-1-0.dll',
   'C:\\Users\\123iv\\Anaconda3\\api-ms-win-core-file-l2-1-0.dll',
   'BINARY'),
  ('api-ms-win-core-file-l1-1-0.dll',
   'C:\\Users\\123iv\\Anaconda3\\api-ms-win-core-file-l1-1-0.dll',
   'BINARY'),
  ('api-ms-win-core-datetime-l1-1-0.dll',
   'C:\\Users\\123iv\\Anaconda3\\api-ms-win-core-datetime-l1-1-0.dll',
   'BINARY'),
  ('api-ms-win-core-errorhandling-l1-1-0.dll',
   'C:\\Users\\123iv\\Anaconda3\\api-ms-win-core-errorhandling-l1-1-0.dll',
   'BINARY'),
  ('api-ms-win-core-processthreads-l1-1-1.dll',
   'C:\\Users\\123iv\\Anaconda3\\api-ms-win-core-processthreads-l1-1-1.dll',
   'BINARY'),
  ('api-ms-win-core-file-l1-2-0.dll',
   'C:\\Users\\123iv\\Anaconda3\\api-ms-win-core-file-l1-2-0.dll',
   'BINARY'),
  ('api-ms-win-core-synch-l1-1-0.dll',
   'C:\\Users\\123iv\\Anaconda3\\api-ms-win-core-synch-l1-1-0.dll',
   'BINARY'),
  ('api-ms-win-core-sysinfo-l1-1-0.dll',
   'C:\\Users\\123iv\\Anaconda3\\api-ms-win-core-sysinfo-l1-1-0.dll',
   'BINARY'),
  ('api-ms-win-core-synch-l1-2-0.dll',
   'C:\\Users\\123iv\\Anaconda3\\api-ms-win-core-synch-l1-2-0.dll',
   'BINARY'),
  ('icuuc58.dll',
   'C:\\Users\\123iv\\Anaconda3\\Library\\bin\\icuuc58.dll',
   'BINARY'),
  ('PyQt5\\Qt\\plugins\\imageformats\\qsvg.dll',
   'C:\\Users\\123iv\\Anaconda3\\Library\\plugins\\imageformats\\qsvg.dll',
   'BINARY'),
  ('PyQt5\\Qt\\plugins\\platforms\\qminimal.dll',
   'C:\\Users\\123iv\\Anaconda3\\Library\\plugins\\platforms\\qminimal.dll',
   'BINARY'),
  ('PyQt5\\Qt\\plugins\\imageformats\\qgif.dll',
   'C:\\Users\\123iv\\Anaconda3\\Library\\plugins\\imageformats\\qgif.dll',
   'BINARY'),
  ('PyQt5\\Qt\\plugins\\imageformats\\qwbmp.dll',
   'C:\\Users\\123iv\\Anaconda3\\Library\\plugins\\imageformats\\qwbmp.dll',
   'BINARY'),
  ('icudt58.dll',
   'C:\\Users\\123iv\\Anaconda3\\Library\\bin\\icudt58.dll',
   'BINARY'),
  ('PyQt5\\Qt\\plugins\\imageformats\\qjpeg.dll',
   'C:\\Users\\123iv\\Anaconda3\\Library\\plugins\\imageformats\\qjpeg.dll',
   'BINARY'),
  ('PyQt5\\Qt\\plugins\\platforms\\qwindows.dll',
   'C:\\Users\\123iv\\Anaconda3\\Library\\plugins\\platforms\\qwindows.dll',
   'BINARY'),
  ('icuin58.dll',
   'C:\\Users\\123iv\\Anaconda3\\Library\\bin\\icuin58.dll',
   'BINARY'),
  ('opengl32sw.dll',
   'C:\\Users\\123iv\\Anaconda3\\Library\\bin\\opengl32sw.dll',
   'BINARY'),
  ('PyQt5\\Qt\\plugins\\imageformats\\qtiff.dll',
   'C:\\Users\\123iv\\Anaconda3\\Library\\plugins\\imageformats\\qtiff.dll',
   'BINARY'),
  ('PyQt5\\Qt\\plugins\\imageformats\\qtga.dll',
   'C:\\Users\\123iv\\Anaconda3\\Library\\plugins\\imageformats\\qtga.dll',
   'BINARY'),
  ('PyQt5\\Qt\\plugins\\imageformats\\qicns.dll',
   'C:\\Users\\123iv\\Anaconda3\\Library\\plugins\\imageformats\\qicns.dll',
   'BINARY'),
  ('PyQt5\\Qt\\plugins\\platforminputcontexts\\qtvirtualkeyboardplugin.dll',
   'C:\\Users\\123iv\\Anaconda3\\Library\\plugins\\platforminputcontexts\\qtvirtualkeyboardplugin.dll',
   'BINARY'),
  ('PyQt5\\Qt\\plugins\\imageformats\\qico.dll',
   'C:\\Users\\123iv\\Anaconda3\\Library\\plugins\\imageformats\\qico.dll',
   'BINARY'),
  ('PyQt5\\Qt\\plugins\\imageformats\\qwebp.dll',
   'C:\\Users\\123iv\\Anaconda3\\Library\\plugins\\imageformats\\qwebp.dll',
   'BINARY'),
  ('PyQt5\\Qt\\plugins\\iconengines\\qsvgicon.dll',
   'C:\\Users\\123iv\\Anaconda3\\Library\\plugins\\iconengines\\qsvgicon.dll',
   'BINARY'),
  ('PyQt5\\Qt\\plugins\\platforms\\qoffscreen.dll',
   'C:\\Users\\123iv\\Anaconda3\\Library\\plugins\\platforms\\qoffscreen.dll',
   'BINARY'),
  ('unicodedata',
   'C:\\Users\\123iv\\Anaconda3\\DLLs\\unicodedata.pyd',
   'EXTENSION'),
  ('_bz2', 'C:\\Users\\123iv\\Anaconda3\\DLLs\\_bz2.pyd', 'EXTENSION'),
  ('_lzma', 'C:\\Users\\123iv\\Anaconda3\\DLLs\\_lzma.pyd', 'EXTENSION'),
  ('select', 'C:\\Users\\123iv\\Anaconda3\\DLLs\\select.pyd', 'EXTENSION'),
  ('_hashlib', 'C:\\Users\\123iv\\Anaconda3\\DLLs\\_hashlib.pyd', 'EXTENSION'),
  ('_ssl', 'C:\\Users\\123iv\\Anaconda3\\DLLs\\_ssl.pyd', 'EXTENSION'),
  ('pyexpat', 'C:\\Users\\123iv\\Anaconda3\\DLLs\\pyexpat.pyd', 'EXTENSION'),
  ('_ctypes', 'C:\\Users\\123iv\\Anaconda3\\DLLs\\_ctypes.pyd', 'EXTENSION'),
  ('win32evtlog',
   'C:\\Users\\123iv\\Anaconda3\\lib\\site-packages\\win32\\win32evtlog.pyd',
   'EXTENSION'),
  ('win32api',
   'C:\\Users\\123iv\\Anaconda3\\lib\\site-packages\\win32\\win32api.pyd',
   'EXTENSION'),
  ('_queue', 'C:\\Users\\123iv\\Anaconda3\\DLLs\\_queue.pyd', 'EXTENSION'),
  ('_socket', 'C:\\Users\\123iv\\Anaconda3\\DLLs\\_socket.pyd', 'EXTENSION'),
  ('PyQt5.QtCore',
   'C:\\Users\\123iv\\Anaconda3\\lib\\site-packages\\PyQt5\\QtCore.pyd',
   'EXTENSION'),
  ('sip',
   'C:\\Users\\123iv\\Anaconda3\\lib\\site-packages\\sip.pyd',
   'EXTENSION'),
  ('PyQt5.QtGui',
   'C:\\Users\\123iv\\Anaconda3\\lib\\site-packages\\PyQt5\\QtGui.pyd',
   'EXTENSION'),
  ('PyQt5.QtWidgets',
   'C:\\Users\\123iv\\Anaconda3\\lib\\site-packages\\PyQt5\\QtWidgets.pyd',
   'EXTENSION'),
  ('api-ms-win-crt-utility-l1-1-0.dll',
   'C:\\Users\\123iv\\Anaconda3\\Library\\bin\\api-ms-win-crt-utility-l1-1-0.dll',
   'BINARY'),
  ('Qt5Gui.dll',
   'C:\\Users\\123iv\\Anaconda3\\Library\\bin\\Qt5Gui.dll',
   'BINARY'),
  ('Qt5Svg.dll',
   'C:\\Users\\123iv\\Anaconda3\\Library\\bin\\Qt5Svg.dll',
   'BINARY'),
  ('Qt5Core.dll',
   'C:\\Users\\123iv\\Anaconda3\\Library\\bin\\Qt5Core.dll',
   'BINARY'),
  ('libpng16.dll',
   'C:\\Users\\123iv\\Anaconda3\\Library\\bin\\libpng16.dll',
   'BINARY'),
  ('zlib.dll', 'C:\\Users\\123iv\\Anaconda3\\Library\\bin\\zlib.dll', 'BINARY'),
  ('libjpeg.dll',
   'C:\\Users\\123iv\\Anaconda3\\Library\\bin\\libjpeg.dll',
   'BINARY'),
  ('MSVCP140.dll', 'C:\\Users\\123iv\\Anaconda3\\MSVCP140.dll', 'BINARY'),
  ('Qt5Qml.dll',
   'C:\\Users\\123iv\\Anaconda3\\Library\\bin\\Qt5Qml.dll',
   'BINARY'),
  ('Qt5Quick.dll',
   'C:\\Users\\123iv\\Anaconda3\\Library\\bin\\Qt5Quick.dll',
   'BINARY'),
  ('libcrypto-1_1-x64.dll',
   'C:\\Users\\123iv\\Anaconda3\\Library\\bin\\libcrypto-1_1-x64.dll',
   'BINARY'),
  ('libssl-1_1-x64.dll',
   'C:\\Users\\123iv\\Anaconda3\\Library\\bin\\libssl-1_1-x64.dll',
   'BINARY'),
  ('pywintypes37.dll',
   'C:\\Users\\123iv\\Anaconda3\\lib\\site-packages\\win32\\pywintypes37.dll',
   'BINARY'),
  ('python3.dll', 'C:\\Users\\123iv\\Anaconda3\\python3.dll', 'BINARY'),
  ('Qt5Widgets.dll',
   'C:\\Users\\123iv\\Anaconda3\\Library\\bin\\Qt5Widgets.dll',
   'BINARY'),
  ('Qt5Network.dll',
   'C:\\Users\\123iv\\Anaconda3\\Library\\bin\\Qt5Network.dll',
   'BINARY'),
  ('base_library.zip',
   'C:\\Users\\123iv\\OneDrive\\Рабочий '
   'стол\\steel_com_1\\build\\main_wind\\base_library.zip',
   'DATA'),
  ('PyQt5\\Qt\\translations\\qtbase_ca.qm',
   'C:\\Users\\123iv\\Anaconda3\\Library\\translations\\qtbase_ca.qm',
   'DATA'),
  ('PyQt5\\Qt\\translations\\qtbase_en.qm',
   'C:\\Users\\123iv\\Anaconda3\\Library\\translations\\qtbase_en.qm',
   'DATA'),
  ('PyQt5\\Qt\\translations\\qtbase_pl.qm',
   'C:\\Users\\123iv\\Anaconda3\\Library\\translations\\qtbase_pl.qm',
   'DATA'),
  ('PyQt5\\Qt\\translations\\qtbase_ko.qm',
   'C:\\Users\\123iv\\Anaconda3\\Library\\translations\\qtbase_ko.qm',
   'DATA'),
  ('PyQt5\\Qt\\translations\\qtbase_es.qm',
   'C:\\Users\\123iv\\Anaconda3\\Library\\translations\\qtbase_es.qm',
   'DATA'),
  ('PyQt5\\Qt\\translations\\qtbase_uk.qm',
   'C:\\Users\\123iv\\Anaconda3\\Library\\translations\\qtbase_uk.qm',
   'DATA'),
  ('PyQt5\\Qt\\translations\\qtbase_hu.qm',
   'C:\\Users\\123iv\\Anaconda3\\Library\\translations\\qtbase_hu.qm',
   'DATA'),
  ('PyQt5\\Qt\\translations\\qtbase_it.qm',
   'C:\\Users\\123iv\\Anaconda3\\Library\\translations\\qtbase_it.qm',
   'DATA'),
  ('PyQt5\\Qt\\translations\\qtbase_de.qm',
   'C:\\Users\\123iv\\Anaconda3\\Library\\translations\\qtbase_de.qm',
   'DATA'),
  ('PyQt5\\Qt\\translations\\qtbase_fi.qm',
   'C:\\Users\\123iv\\Anaconda3\\Library\\translations\\qtbase_fi.qm',
   'DATA'),
  ('PyQt5\\Qt\\translations\\qtbase_bg.qm',
   'C:\\Users\\123iv\\Anaconda3\\Library\\translations\\qtbase_bg.qm',
   'DATA'),
  ('PyQt5\\Qt\\translations\\qtbase_lv.qm',
   'C:\\Users\\123iv\\Anaconda3\\Library\\translations\\qtbase_lv.qm',
   'DATA'),
  ('PyQt5\\Qt\\translations\\qtbase_sk.qm',
   'C:\\Users\\123iv\\Anaconda3\\Library\\translations\\qtbase_sk.qm',
   'DATA'),
  ('PyQt5\\Qt\\translations\\qtbase_ar.qm',
   'C:\\Users\\123iv\\Anaconda3\\Library\\translations\\qtbase_ar.qm',
   'DATA'),
  ('PyQt5\\Qt\\translations\\qtbase_fr.qm',
   'C:\\Users\\123iv\\Anaconda3\\Library\\translations\\qtbase_fr.qm',
   'DATA'),
  ('PyQt5\\Qt\\translations\\qtbase_ru.qm',
   'C:\\Users\\123iv\\Anaconda3\\Library\\translations\\qtbase_ru.qm',
   'DATA'),
  ('PyQt5\\Qt\\translations\\qtbase_he.qm',
   'C:\\Users\\123iv\\Anaconda3\\Library\\translations\\qtbase_he.qm',
   'DATA'),
  ('PyQt5\\Qt\\translations\\qtbase_ja.qm',
   'C:\\Users\\123iv\\Anaconda3\\Library\\translations\\qtbase_ja.qm',
   'DATA'),
  ('PyQt5\\Qt\\translations\\qtbase_da.qm',
   'C:\\Users\\123iv\\Anaconda3\\Library\\translations\\qtbase_da.qm',
   'DATA'),
  ('PyQt5\\Qt\\translations\\qtbase_gd.qm',
   'C:\\Users\\123iv\\Anaconda3\\Library\\translations\\qtbase_gd.qm',
   'DATA'),
  ('PyQt5\\Library\\bin\\qt.conf',
   'C:\\Users\\123iv\\Anaconda3\\Library\\bin\\qt.conf',
   'DATA'),
  ('PyQt5\\Qt\\translations\\qtbase_cs.qm',
   'C:\\Users\\123iv\\Anaconda3\\Library\\translations\\qtbase_cs.qm',
   'DATA'),
  ('main_wind.exe.manifest',
   'C:\\Users\\123iv\\OneDrive\\Рабочий '
   'стол\\steel_com_1\\build\\main_wind\\main_wind.exe.manifest',
   'BINARY'),
  ('pyi-windows-manifest-filename main_wind.exe.manifest', '', 'OPTION')],
 False,
 False,
 False,
 [])
